"ApprenticeshipID	IndustryID	ApprenticeshipName	ApprenticeshipDescr"
"1	1	Handler of mining machines for surface exploitation"
"2	1	Handler of mining machines for underground exploitation"
"3	1	Handler of mining machinery"
"4	1	Handler of drill rig equipment"
"5	1	Operator for geotechnical and hydrogeological research"
"6	1	Mineral resources exploration operator"
"7	1	Blasting operator"
"8	1	Operator for preparation of mineral raw materials"
"9	1	Surface and underground exploitation operator,"
"10	1	Metal extraction operator"
"11	1	Metal processing operator"
"12	2	Associate for technical documentation for construction works"
"13	2	Operator for construction and control of construction works."
"14	2	Surveyor for cadastral affairs"
"15	2	Surveyor for engineering geodesy"
"16	2	Surveyor for urbanism, spatial planning and management"
"17	2	Collaborator in the preparation of project documentation"
"18	2	Operator-contractor of construction works from architecture."
"19	2	Operator for design of interior architecture and production and installation of furniture"
"20	2	Associate in the preparation of project documentation for the interior."
"21	3	Printer"
"22	3	Printer of conventional printing techniques"
"23	3	Printer of unconventional printing techniques"
"24	3	Developer of visual applications"
"25	3	Technical executor of graphic preparation"
"26	3	Graphic preparation and printing operator"
"27	3	Operator for finishing graphic products"
"28	3	Graphic editor designer"
"29	4	Salesman-demonstrator"
"30	4	Salesman-telemarketing"
"31	4	Supervisor in the store"
"32	4	Retailer"
"33	4	Sales Assistant"
"34	4	Operator in customer center"
"35	4	Data entry operator"
"36	4	Assistant Insurance Officer"
"37	4	Assistant Administrative Officer"
"38	4	Logistics agent"
"39	4	Warehouse clerk"
"40	4	Financial Officer"
"41	4	Accountant"
"42	4	Marketing Officer"
"43	4	Bank clerk"
"44	4	Commercialist"
"45	4	Insurance agent"
"46	4	Administrative Officer"
"47	4	Archivist"
"48	4	Technical Administrator"
"49	4	Court Officer"
"50	4	Technical Administrator"
"51	4	Administrative Officer"
"52	4	Project Assistant"
"53	4	Public Relations Assistant"
"54	4	Bookkeeper"
"55	5	Car electronics"
"56	5	Auto electrician"
"57	5	Electrician for installation and maintenance"
"58	5	Electrician of power facilities (plants and lines)"
"59	5	Electrical installer and installer of energy efficient devices"
"60	5	Electromechanic for electronic devices and equipment"
"61	5	Electromechanic for telecommunication devices and telecommunication equipment"
"62	5	Electrical installer and installer of telecommunication devices and telecommunication equipment"
"63	5	Electromechanical for audio and video equipment"
"64	5	Electromechanic for computer hardware"
"65	5	Electromechanic for computer technology"
"66	5	Electromechanic electric motors"
"67	5	Electromechanic for refrigeration and heating devices"
"68	5	Electromechanical winding"
"69	5	Electromechanic for home appliances and devices"
"70	5	Electrician for power grids"
"71	5	Electrician for installation and maintenance"
"72	5	Electrician of power facilities (plants and lines)"
"73	5	Electrical installer of high current installations up to 1KV"
"74	5	Robotics and Intelligent Systems Technician"
"75	5	Database operator"
"76	5	Process Automation Technician"
"77	5	Electronics computer technician"
"78	5	Computer Systems and Networks Technician"
"79	5	Web technician"
"80	5	Information and Communication Technologies (ICT) Technician for Customer Support"
"81	5	Technician for electronic components, appliances and devices"
"82	5	Electrical technician for automatic and control systems"
"83	5	Electrical technician for radio and television equipment"
"84	5	Electrical technician for telecommunication equipment and networks"
"85	5	Electrical technician for mobile telephony"
"86	5	Picture/video recorder"
"87	5	Image and tone editor"
"88	5	Electrical technician for electrical installations and lighting"
"89	5	Electrical technician for communications, measurements and management in electricity"
"90	5	Electrician for production, transmission and distribution of electricity"
"91	5	Operator of electric machines and electric motors"
"92	5	Operator of electrical appliances and household appliances"
"93	5	Electrical technician for automatic and control systems"
"94	5	Process Automation Technician"
"95	5	Robotics and Intelligent Systems Technician"
"96	5	Electrical technician for communications, measurements and management in electricity"
"97	5	Operator of electric machines and electric motors"
"98	5	Computer controlled systems operator"
"99	5	Operator of metal processing technology with deformation and cutting"
"100	6	Care Assistant - Alzheimer's Dementia and Intellectual Disabilities"
"101	6	Paramedic"
"102	6	Adult caregiver"
"103	6	Practitioner (technician) for children, youth, and families"
"104	6	Dental assistant"
"105	6	Educator for children"
"106	6	Health associates"
"107	6	Emergency medicine paramedic"
"108	6	Pharmaceutical technician"
"109	6	Physiotherapy technician"
"110	6	Gynecological and obstetric nurse"
"111	6	Medical beautician"
"112	6	Medical laboratory assistant"
"113	6	?urse"
"114	6	Sanitary laboratory assistant"
"115	6	Dentist"
"116	6	Child caregiver"
"117	6	Oral hygienist"
"118	6	Dental technician - esthetician ceramicist"
"119	6	Dental technician - specialist in aesthetic dentistry"
"120	6	Dental Assistant"
"121	6	Caregiver for the elderly and infirm"
"122	7	Flower Crop Producer (Florist)"
"123	7	Producer of horticultural crops (Gardener)"
"124	7	Crop production operator"
"125	7	Livestock production operator"
"126	7	Agricultural mechanization operator"
"127	7	Operator in veterinary medicine"
"128	7	Livestock production operator"
"129	7	Plant protection operator"
"130	7	Crop production operator"
"131	7	Farm management operator"
"132	7	Agricultural products and services marketing operator"
"133	7	Crop production operator"
"134	7	Livestock production operator"
"135	7	Agricultural mechanization operator"
"136	8	Master beautician"
"137	8	Hairdresser"
"138	8	Masseuse"
"139	8	Hand and foot care beautician"
"140	8	Beautician"
"141	8	Cosmetic technician"
"142	8	Masseuse for cosmetic massage, wellness and spa"
"143	8	Optician"
"144	8	Associate for vision correction measurements"
"145	8	Stylist beautician"
"146	9	Master car mechanic"
"147	9	Engine and motor vehicle installer"
"148	9	Car painter"
"149	9	Car body repair techician"
"150	9	Car mechanic (light vehicle)"
"151	9	Locksmith"
"152	9	Construction mechanic"
"153	9	Mechanic for hydropneumatic plants"
"154	9	Machine locksmith"
"155	9	Mechanical mechanic"
"156	9	Engineer for thermal systems"
"157	9	Metallurgist"
"158	9	Metalworker"
"159	9	Plumber and sanitary installation installer /"
"160	9	Hot water installation installer"
"161	9	Vulcanizer"
"162	9	Welder"
"163	9	Toolmaker"
"164	9	Vehicle malfunction diagnostician"
"165	9	Installer for heating, air conditioning and ventilation with skills for energy efficiency of buildings"
"166	9	CNC program maker"
"167	9	Mechanic for power plants"
"168	9	Mechanic and installer of engines and motor vehicles"
"169	9	CNC machine operator"
"170	9	Computer controlled systems operator"
"171	9	Operator of the technology of production and maintenance of engines and motor vehicles"
"172	9	Operator of the technology of making metal structures"
"173	9	Operator of metal processing technology with deformation and cutting"
"174	9	Operator of the technology of production and maintenance of process machines, plants and machine mechanization"
"175	9	Operator of the technology of production and maintenance of energy machines and plants"
"176	9	Welding technology operator"
"177	9	Power plant operator"
"178	9	Associate for technical documentation in mechanical engineering"
"179	9	Vehicle technical inspection controller"
"180	10	Driver for maneuver"
"181	10	Financial clerk at train station"
"182	10	Telecontrol dispatcher"
"183	10	Dispatcher in road traffic"
"184	10	Railway safety controller"
"185	10	Operator for utilization of road vehicles"
"186	10	Operator for the organization of trafic traffic"
"187	10	Operator for traffic and safety regulation"
"188	10	Storage operator"
"189	10	Transport logistics operator"
"190	10	Transport operator"
"191	10	Operator for traffic accident insight"
"192	10	Freight forwarder"
"193	10	Freight forwarding customs representative"
"194	10	Forwarder"
"195	10	Transport - commercial technician"
"196	10	Driver - instructor"
"197	10	Traffic insurance agent"
"198	11	Operator of CAD / CAM systems in the textile industry"
"199	11	Sewing machine repairman"
"200	11	Manufacturer of machine knitted products"
"201	11	Assistant confectioner"
"202	11	Sewing"
"203	11	Garment of garment material"
"204	11	Clothing designer"
"205	11	Shoe designer"
"206	11	Fashion stylist"
"207	11	Modelers of footwear and leather accessories"
"208	11	Clothing finishing operator"
"209	11	Shoe tailoring operator"
"210	11	Clothes tailoring operator"
"211	11	Shoe sewing operator"
"212	11	Clothes sewing operator"
"213	11	Compiler of upper with lower parts of shoes"
"214	12	Hotel and restaurant technician"
"215	12	Bartender"
"216	12	Chef"
"217	12	Conference and event manager"
"218	12	Reception Manager"
"219	12	Hospitality Manager - Host"
"220	12	Tourist guide"
"221	12	Waiter"
"222	12	Assistant barista"
"223	12	Pastry chef"
"224	12	Maid"
"225	12	Rural tourism operator"
"226	12	Reception clerk"
"227	12	Culinary technician"
"228	12	Manifestation and events technician"
"229	12	Catering technician"
"230	12	Tourist animator"
"231	12	Agency Officer"
"232	12	Specialist chef"
"233	13	Meat processor"
"234	13	Processor-seller of meat and meat products"
"235	13	Milk processor"
"236	13	Baker for the production of crusts, noodles and kadaif"
"237	13	Baker for the production of pastries and pizza"
"238	13	Baker for bread production"
"239	13	Manufacturer of pasteurized meat products"
"240	13	Manufacturer of fresh meat products"
"241	13	Manufacturer of sour milk products"
"242	13	Manufacturer of sterilized meat products"
"243	13	Manufacturer of durable meat products"
"244	13	Chemical-process operator"
"245	13	Confectioner"
"246	13	Exhaust gas emission controller from stationary sources"
"247	13	Waste and hazardous substances controller"
"248	13	Quality controller of products and materials"
"249	13	Water quality controller"
"250	13	Operator in the detergent industry"
"251	13	Operator in the pharmaceutical industry"
"252	13	Fuel operator"
"253	13	Chemical analysis operator"
"254	13	Operator in the cosmetics industry"
"255	13	Operator of microbiological and sanitary analyzes"
"256	13	Operator in the inorganic industry"
"257	13	Operator in organic-polymer industry"
"258	13	Fruit and vegetable processor"
"259	13	Processor of coffee, teas and food accessories"
"260	13	Grain Processor / Mill"
"261	13	Manufacturer of soft and alcoholic beverages"
"262	13	Manufacturer of yeast and ethanol"
"263	13	Beer and vinegar producer"
"264	13	Sugar maker"
"265	13	Operator of packaging, labeling and labeling machines"
"266	13	Car painter"
"267	13	Firefighter"
"268	14	Upholster - decorator"
"269	14	Carpenter for construction carpentry"
"270	14	Furniture and interior carpenter"
"271	14	Forester"
"272	14	Sawmill operator"
"273	14	Operator for production of wooden boards"
"274	14	Operator for making soft pieces of furniture and interior decoration"
"275	14	Production preparation operator"
"276	14	Operator for design, construction and maintenance of green areas"
"277	14	Planting material production operator"
"278	14	Afforestation and forest protection operator"
"279	14	Forest production operator"
"280	14	Operator of devices for drying and steaming of wood"
"281	14	Operator of technological processes for processing wood and boards"
"282	14	Forestry specialist"
"283	15	Mountain and inaccessible terrain rescuer"
"284	15	Ski patrol rescuer"
"285	15	Fitness instructor"
"286	15	Setter of recreational-hiking trails - marker"
"287	16	Mentor for work integration"
"288	16	Pedagogical assistant"
"289	16	Youth worker"
"290	16	Sustainable Development Analyst"
"291	16	Trainer"
"292	16	Organizer of festivities, cultural-entertainment and corporate events"
